{
  "version": 2,
  "data": {
    "absolutely-proprietary": {
      "version": "20220518.205150",
      "revision": "632ebf75bff68959e48ad7db06a9350fede806d0",
      "url": "https://github.com/vmavromatis/absolutely-proprietary/commit/632ebf75bff68959e48ad7db06a9350fede806d0"
    },
    "amdvbflash": {
      "version": "20201229.092122",
      "revision": "dec0b4e49e4c193fb885ebca16910cdbea86b747",
      "url": "https://github.com/stylesuxx/amdvbflash/commit/dec0b4e49e4c193fb885ebca16910cdbea86b747"
    },
    "beekeeper-studio": {
      "version": "5.1.4",
      "gitref": "refs/tags/v5.1.4",
      "url": "https://github.com/beekeeper-studio/beekeeper-studio/releases/tag/v5.1.4"
    },
    "bitw-git": {
      "version": "20240214.130704",
      "revision": "d4600876932c7e27feb32b17c83c8f933388c30f",
      "url": "https://github.com/mvdan/bitw/commit/d4600876932c7e27feb32b17c83c8f933388c30f"
    },
    "certspotter": {
      "version": "0.18.0",
      "gitref": "refs/tags/v0.18.0",
      "revision": "6f9242e6f05599014a6576732b0999be1cfeef01",
      "url": "https://github.com/SSLMate/certspotter/releases/tag/v0.18.0"
    },
    "dmenufm": {
      "version": "2.2",
      "gitref": "refs/tags/2.2",
      "revision": "145b0c4da5bc0bdd35b74edd838b95f2e19ca402",
      "url": "https://github.com/huijunchen9260/dmenufm/releases/tag/2.2"
    },
    "dolphin-emu-git": {
      "version": "2412-5",
      "url": "https://archlinux.org/packages/extra/x86_64/dolphin-emu/"
    },
    "electron3-bin": {
      "version": "3.1.13",
      "gitref": "refs/tags/v3.1.13",
      "revision": "9b28b25cb6799646307c52976c260043e82acb48",
      "url": "https://github.com/electron/electron/releases/tag/v3.1.13"
    },
    "electron4-bin": {
      "version": "4.2.12",
      "gitref": "refs/tags/v4.2.12",
      "revision": "16ec06847c66ff9d83a4573189c9149058e0ac80",
      "url": "https://github.com/electron/electron/releases/tag/v4.2.12"
    },
    "electron5-bin": {
      "version": "5.0.13",
      "gitref": "refs/tags/v5.0.13",
      "revision": "6e6d7006abdc81e878daf0569421b0cafa75873f",
      "url": "https://github.com/electron/electron/releases/tag/v5.0.13"
    },
    "electron6-bin": {
      "version": "6.1.12",
      "gitref": "refs/tags/v6.1.12",
      "revision": "0cd5c1ad4a6b7c1839f925ada59b41a0fcdf77da",
      "url": "https://github.com/electron/electron/releases/tag/v6.1.12"
    },
    "electron7-bin": {
      "version": "7.3.3",
      "gitref": "refs/tags/v7.3.3",
      "revision": "8638a6aaae9b4e19bf0a082dd069a53e06c9a6e5",
      "url": "https://github.com/electron/electron/releases/tag/v7.3.3"
    },
    "electron8-bin": {
      "version": "8.5.5",
      "gitref": "refs/tags/v8.5.5",
      "revision": "98a8f4a6daf18b3d74d7980387e833a12646116f",
      "url": "https://github.com/electron/electron/releases/tag/v8.5.5"
    },
    "expresslrs-configurator": {
      "version": "1.7.7",
      "gitref": "refs/tags/v1.7.7",
      "revision": "762406c2e1eafec3de2ffa9e2101f293ef646ab6",
      "url": "https://github.com/ExpressLRS/ExpressLRS-Configurator/releases/tag/v1.7.7"
    },
    "flow": {
      "version": "0.263.0",
      "gitref": "refs/tags/v0.263.0",
      "revision": "c2171b5c59b774a4ab6a7e90b46537d865261c5c",
      "url": "https://github.com/facebook/flow/releases/tag/v0.263.0"
    },
    "flow-bin": {
      "version": "0.263.0",
      "gitref": "refs/tags/v0.263.0",
      "revision": "c2171b5c59b774a4ab6a7e90b46537d865261c5c",
      "url": "https://github.com/facebook/flow/releases/tag/v0.263.0"
    },
    "gcac": {
      "version": "1.0.3",
      "revision": "c42d39736ea0fb23bc682b92f05275e210a0fe59",
      "url": "https://gitlab.com/dpeukert/gcac/-/tags/1.0.3"
    },
    "gnome-keyring-import-export-git": {
      "version": "20220413.082959",
      "revision": "b3cdd718f42b3a66c2b3ffbe15ed6184ba707578",
      "url": "https://github.com/spookylukey/gnome-keyring-import-export/commit/b3cdd718f42b3a66c2b3ffbe15ed6184ba707578"
    },
    "hlsdl": {
      "version": "0.27"
    },
    "hlsdl-git": {
      "version": "20230617.201626",
      "revision": "42dcfa401deedbdc1af22ae9e5a8965563a6583b",
      "url": "https://github.com/selsta/hlsdl/commit/42dcfa401deedbdc1af22ae9e5a8965563a6583b"
    },
    "inputmodule-control": {
      "version": "0.2.0",
      "gitref": "refs/tags/v0.2.0",
      "revision": "8f419f88b580f10830828ec6e15b960b32b03b75",
      "url": "https://github.com/FrameworkComputer/inputmodule-rs/releases/tag/v0.2.0"
    },
    "inputmodule-udev": {
      "version": "0.2.0",
      "gitref": "refs/tags/v0.2.0",
      "revision": "8f419f88b580f10830828ec6e15b960b32b03b75",
      "url": "https://github.com/FrameworkComputer/inputmodule-rs/releases/tag/v0.2.0"
    },
    "kahlo": {
      "version": "1.5.3",
      "revision": "503c17afbea5afebc412b0104aa82aa1ac2ce041",
      "url": "https://gitlab.com/dpeukert/kahlo/-/tags/1.5.3"
    },
    "libmongocrypt": {
      "version": "1.13.0",
      "gitref": "refs/tags/1.13.0",
      "revision": "ce67d6391a6914db65ecec05db205132e682ef7b",
      "url": "https://github.com/mongodb/libmongocrypt/releases/tag/1.13.0"
    },
    "lightspark": {
      "version": "0.9.0",
      "gitref": "refs/tags/0.9.0",
      "url": "https://github.com/lightspark/lightspark/releases/tag/0.9.0"
    },
    "logcrash-decoder": {
      "version": "1.0",
      "gitref": "refs/tags/1.0",
      "revision": "c8e68e404ac448f96e1acd5eec58062fbe0385e0",
      "url": "https://github.com/codecat/logcrash-decoder/releases/tag/1.0"
    },
    "miniterm": {
      "version": "1.7.0",
      "gitref": "refs/tags/v1.7.0",
      "revision": "bdd12c3a56dc260e1930fa1504721222307af485",
      "url": "https://github.com/laelath/miniterm/releases/tag/v1.7.0"
    },
    "mirador-git": {
      "version": "20250118.072419",
      "revision": "7bd89a58ee71a33768be8a11f994b138dfa7464f",
      "url": "https://github.com/pimalaya/mirador/commit/7bd89a58ee71a33768be8a11f994b138dfa7464f"
    },
    "mongodb-compass-beta": {
      "version": "1.45.4-beta.7",
      "gitref": "refs/tags/v1.45.4-beta.7",
      "revision": "58526f96e1b349dbfff703f8b01a66a6e4f4471b",
      "url": "https://github.com/mongodb-js/compass/releases/tag/v1.45.4-beta.7"
    },
    "mongodb-compass-beta-bin": {
      "version": "1.45.4-beta.7",
      "gitref": "refs/tags/v1.45.4-beta.7",
      "revision": "58526f96e1b349dbfff703f8b01a66a6e4f4471b",
      "url": "https://github.com/mongodb-js/compass/releases/tag/v1.45.4-beta.7"
    },
    "mongodb-compass-isolated": {
      "version": "1.45.3",
      "gitref": "refs/tags/v1.45.3",
      "url": "https://github.com/mongodb-js/compass/releases/tag/v1.45.3"
    },
    "mongodb-compass-isolated-beta": {
      "version": "1.45.4-beta.7",
      "gitref": "refs/tags/v1.45.4-beta.7",
      "revision": "58526f96e1b349dbfff703f8b01a66a6e4f4471b",
      "url": "https://github.com/mongodb-js/compass/releases/tag/v1.45.4-beta.7"
    },
    "mongodb-compass-isolated-beta-bin": {
      "version": "1.45.4-beta.7",
      "gitref": "refs/tags/v1.45.4-beta.7",
      "revision": "58526f96e1b349dbfff703f8b01a66a6e4f4471b",
      "url": "https://github.com/mongodb-js/compass/releases/tag/v1.45.4-beta.7"
    },
    "mongodb-compass-isolated-bin": {
      "version": "1.45.3",
      "gitref": "refs/tags/v1.45.3",
      "url": "https://github.com/mongodb-js/compass/releases/tag/v1.45.3"
    },
    "mongodb-compass-readonly": {
      "version": "1.45.3",
      "gitref": "refs/tags/v1.45.3",
      "url": "https://github.com/mongodb-js/compass/releases/tag/v1.45.3"
    },
    "mongodb-compass-readonly-beta": {
      "version": "1.45.4-beta.7",
      "gitref": "refs/tags/v1.45.4-beta.7",
      "revision": "58526f96e1b349dbfff703f8b01a66a6e4f4471b",
      "url": "https://github.com/mongodb-js/compass/releases/tag/v1.45.4-beta.7"
    },
    "mongodb-compass-readonly-beta-bin": {
      "version": "1.45.4-beta.7",
      "gitref": "refs/tags/v1.45.4-beta.7",
      "revision": "58526f96e1b349dbfff703f8b01a66a6e4f4471b",
      "url": "https://github.com/mongodb-js/compass/releases/tag/v1.45.4-beta.7"
    },
    "mongodb-compass-readonly-bin": {
      "version": "1.45.3",
      "gitref": "refs/tags/v1.45.3",
      "url": "https://github.com/mongodb-js/compass/releases/tag/v1.45.3"
    },
    "ocaml-afl-persistent": {
      "version": "1.4",
      "gitref": "refs/tags/v1.4",
      "revision": "c92ee7c38685cee4c68ef7975b05852cf82bbc0a",
      "url": "https://github.com/stedolan/ocaml-afl-persistent/releases/tag/v1.4"
    },
    "ocaml-alcotest": {
      "version": "1.8.0",
      "gitref": "refs/tags/1.8.0",
      "revision": "4babcfcfa8627571222e2d6e825d529c4f31a0d6",
      "url": "https://github.com/mirage/alcotest/releases/tag/1.8.0"
    },
    "ocaml-async": {
      "version": "0.17.0",
      "gitref": "refs/tags/v0.17.0",
      "revision": "b0d9f3e7ff3bbf456819602d8259fd1cad56d363",
      "url": "https://github.com/janestreet/async/releases/tag/v0.17.0"
    },
    "ocaml-async_kernel": {
      "version": "0.17.0",
      "gitref": "refs/tags/v0.17.0",
      "revision": "523cbfef55bfba758afa476dfc4148e594459379",
      "url": "https://github.com/janestreet/async_kernel/releases/tag/v0.17.0"
    },
    "ocaml-async_log": {
      "version": "0.17.0",
      "gitref": "refs/tags/v0.17.0",
      "revision": "d409200496638c31a4b7e13c3fe32c6699bad84a",
      "url": "https://github.com/janestreet/async_log/releases/tag/v0.17.0"
    },
    "ocaml-async_rpc_kernel": {
      "version": "0.17.0",
      "gitref": "refs/tags/v0.17.0",
      "revision": "be0e3e4670b222986c89524eb4b7084e71479101",
      "url": "https://github.com/janestreet/async_rpc_kernel/releases/tag/v0.17.0"
    },
    "ocaml-async_unix": {
      "version": "0.17.0",
      "gitref": "refs/tags/v0.17.0",
      "revision": "3cbd560a8e21f0440e1f7db550335a236abbc990",
      "url": "https://github.com/janestreet/async_unix/releases/tag/v0.17.0"
    },
    "ocaml-backoff": {
      "version": "0.1.1",
      "gitref": "refs/tags/0.1.1",
      "revision": "5c1c99082bbdb25fe54d20b29e71f38f79d89d82",
      "url": "https://github.com/ocaml-multicore/backoff/releases/tag/0.1.1"
    },
    "ocaml-base_bigstring": {
      "version": "0.17.0",
      "gitref": "refs/tags/v0.17.0",
      "revision": "1b8fd2ed752e962d43d013d20fa2dcae0a07c95e",
      "url": "https://github.com/janestreet/base_bigstring/releases/tag/v0.17.0"
    },
    "ocaml-base_quickcheck": {
      "version": "0.17.0",
      "gitref": "refs/tags/v0.17.0",
      "revision": "5b813142dc422c0b48563565b348f604d2fb1d0b",
      "url": "https://github.com/janestreet/base_quickcheck/releases/tag/v0.17.0"
    },
    "ocaml-bigstringaf": {
      "version": "0.10.0",
      "gitref": "refs/tags/0.10.0",
      "revision": "1f3c7638f394ca2fbb5b647a4a061c357e5e21d2",
      "url": "https://github.com/inhabitedtype/bigstringaf/releases/tag/0.10.0"
    },
    "ocaml-bin_prot": {
      "version": "0.17.0",
      "gitref": "refs/tags/v0.17.0",
      "revision": "2cd58a8cd74b5fa1f28d63cbc4deaf6665b82525",
      "url": "https://github.com/janestreet/bin_prot/releases/tag/v0.17.0"
    },
    "ocaml-calendar": {
      "version": "3.0.0",
      "gitref": "refs/tags/v3.0.0",
      "revision": "e2e20a8e25ca994689554a492508e0752e299f98",
      "url": "https://github.com/ocaml-community/calendar/releases/tag/v3.0.0"
    },
    "ocaml-capitalization": {
      "version": "0.17.0",
      "gitref": "refs/tags/v0.17.0",
      "revision": "6fbecce2d4a5a49f5d5b5b150f4f7adcab585668",
      "url": "https://github.com/janestreet/capitalization/releases/tag/v0.17.0"
    },
    "ocaml-compiler-libs-repackaged": {
      "version": "0.17.0",
      "gitref": "refs/tags/v0.17.0",
      "revision": "6e131112c80ae530ed86d7dec2b6a080d2e81e28",
      "url": "https://github.com/janestreet/ocaml-compiler-libs/releases/tag/v0.17.0"
    },
    "ocaml-containers": {
      "version": "3.15",
      "gitref": "refs/tags/v3.15",
      "revision": "e1de3da1e32413e8faf32dab58a0be8bbc9be51d",
      "url": "https://github.com/c-cube/ocaml-containers/releases/tag/v3.15"
    },
    "ocaml-core": {
      "version": "0.17.1",
      "gitref": "refs/tags/v0.17.1",
      "revision": "31f34c2b29416db31b10634cfa4cdc3f50db58bb",
      "url": "https://github.com/janestreet/core/releases/tag/v0.17.1"
    },
    "ocaml-core_kernel": {
      "version": "0.17.0",
      "gitref": "refs/tags/v0.17.0",
      "revision": "4b6093e0c13bb2143a7f60dde3bc0f5fdec0e39f",
      "url": "https://github.com/janestreet/core_kernel/releases/tag/v0.17.0"
    },
    "ocaml-core_unix": {
      "version": "0.17.0",
      "gitref": "refs/tags/v0.17.0",
      "revision": "97c95a680e5913e5f8d93630daaba1d4b8f86be3",
      "url": "https://github.com/janestreet/core_unix/releases/tag/v0.17.0"
    },
    "ocaml-crowbar": {
      "version": "0.2.1",
      "gitref": "refs/tags/v0.2.1",
      "revision": "bfd27e495251fd5e23b8b23e01ef42ba185acc4c",
      "url": "https://github.com/stedolan/crowbar/releases/tag/v0.2.1"
    },
    "ocaml-domain-local-await": {
      "version": "1.0.1",
      "gitref": "refs/tags/1.0.1",
      "revision": "e94c739a51f668168b3264060456e5549e45925c",
      "url": "https://github.com/ocaml-multicore/domain-local-await/releases/tag/1.0.1"
    },
    "ocaml-domain-local-timeout": {
      "version": "1.0.1",
      "gitref": "refs/tags/1.0.1",
      "revision": "69b629a530f74de32a830c046e7f78fb6c5c1b73",
      "url": "https://github.com/ocaml-multicore/domain-local-timeout/releases/tag/1.0.1"
    },
    "ocaml-dscheck": {
      "version": "0.5.0",
      "gitref": "refs/tags/0.5.0",
      "revision": "bfbcae3fa0a6e581ab98f792d2a8f412ad69dbb5",
      "url": "https://github.com/ocaml-multicore/dscheck/releases/tag/0.5.0"
    },
    "ocaml-dtoa": {
      "version": "0.3.3",
      "gitref": "refs/tags/v0.3.3",
      "revision": "da4706a3f43feda5387c24c00f170b56651e5686",
      "url": "https://github.com/flowtype/ocaml-dtoa/releases/tag/v0.3.3"
    },
    "ocaml-duration": {
      "version": "0.2.1",
      "gitref": "refs/tags/v0.2.1",
      "revision": "21674f46d828bba075a17c17c54da39e0db2a25f",
      "url": "https://github.com/hannesm/duration/releases/tag/v0.2.1"
    },
    "ocaml-eio": {
      "version": "1.2",
      "gitref": "refs/tags/v1.2",
      "revision": "ba45dedc7f0c55ddaa07880bfa1e3b7670007931",
      "url": "https://github.com/ocaml-multicore/eio/releases/tag/v1.2"
    },
    "ocaml-expect_test_helpers_core": {
      "version": "0.17.0",
      "gitref": "refs/tags/v0.17.0",
      "revision": "ec4f0c274a93421e26632e19cf80238ae200eff8",
      "url": "https://github.com/janestreet/expect_test_helpers_core/releases/tag/v0.17.0"
    },
    "ocaml-fieldslib": {
      "version": "0.17.0",
      "gitref": "refs/tags/v0.17.0",
      "revision": "8961c9c6c6faf838be08a74161c036a55aa9974d",
      "url": "https://github.com/janestreet/fieldslib/releases/tag/v0.17.0"
    },
    "ocaml-fileutils": {
      "version": "0.6.6",
      "gitref": "refs/tags/v0.6.6",
      "revision": "e1ad1e2ed26908ccb3e14561cd5a28ef2408c5c3",
      "url": "https://github.com/gildor478/ocaml-fileutils/releases/tag/v0.6.6"
    },
    "ocaml-gel": {
      "version": "0.17.0",
      "gitref": "refs/tags/v0.17.0",
      "revision": "3a56ba08333f48f05bb2ba09d035f53895ed9a57",
      "url": "https://github.com/janestreet/gel/releases/tag/v0.17.0"
    },
    "ocaml-gen": {
      "version": "1.1",
      "gitref": "refs/tags/v1.1",
      "revision": "30802b92145e0c9cd235d3d2ba4d2210fda5612a",
      "url": "https://github.com/c-cube/gen/releases/tag/v1.1"
    },
    "ocaml-graphics": {
      "version": "5.1.2",
      "gitref": "refs/tags/5.1.2",
      "revision": "b995a193d20626837a5ca72bd153761271e4a132",
      "url": "https://github.com/ocaml/graphics/releases/tag/5.1.2"
    },
    "ocaml-hmap": {
      "version": "0.8.0",
      "gitref": "refs/tags/v0.8.0",
      "revision": "c7d026c892d1df212ca8342b33a89d6d2c9d099c"
    },
    "ocaml-inotify": {
      "version": "2.6",
      "gitref": "refs/tags/v2.6",
      "revision": "071b83126d68b10a6d5ec4387351545af7a9eb7d",
      "url": "https://github.com/whitequark/ocaml-inotify/releases/tag/v2.6"
    },
    "ocaml-int_repr": {
      "version": "0.17.0",
      "gitref": "refs/tags/v0.17.0",
      "revision": "5fec6ed5c80484df329cccbd8d2604a4ad163bbf",
      "url": "https://github.com/janestreet/int_repr/releases/tag/v0.17.0"
    },
    "ocaml-iomux": {
      "version": "0.3",
      "gitref": "refs/tags/v0.3",
      "revision": "92078fbe20c05208d66dd6c3779434f06e571587",
      "url": "https://github.com/ocaml-multicore/ocaml-iomux/releases/tag/v0.3"
    },
    "ocaml-iter": {
      "version": "1.9",
      "gitref": "refs/tags/v1.9",
      "revision": "a525d4902c9fb71e6acd84ee1f2ab8e1f3eefb10",
      "url": "https://github.com/c-cube/iter/releases/tag/v1.9"
    },
    "ocaml-jane-street-headers": {
      "version": "0.17.0",
      "gitref": "refs/tags/v0.17.0",
      "revision": "7c166660dd6470e28a64cb4c453fd8b791c02724",
      "url": "https://github.com/janestreet/jane-street-headers/releases/tag/v0.17.0"
    },
    "ocaml-js_of_ocaml": {
      "version": "6.0.1",
      "gitref": "refs/tags/6.0.1",
      "revision": "0e83ffed53e4497316580c7a8da14ac924b00879",
      "url": "https://github.com/ocsigen/js_of_ocaml/releases/tag/6.0.1"
    },
    "ocaml-jst-config": {
      "version": "0.17.0",
      "gitref": "refs/tags/v0.17.0",
      "revision": "2487727655bfb8d6a511eb7886fb65bba4cfbbc7",
      "url": "https://github.com/janestreet/jst-config/releases/tag/v0.17.0"
    },
    "ocaml-kcas": {
      "version": "0.7.0",
      "gitref": "refs/tags/0.7.0",
      "revision": "c76ef062f115e4f00636c84bd3c7022cab253086",
      "url": "https://github.com/ocaml-multicore/kcas/releases/tag/0.7.0"
    },
    "ocaml-lwt": {
      "version": "5.8.1",
      "gitref": "refs/tags/5.8.1",
      "revision": "69eff1fc2cf8dbd7a63c04723612f6afea09316c",
      "url": "https://github.com/ocsigen/lwt/releases/tag/5.8.1"
    },
    "ocaml-lwt-dllist": {
      "version": "1.0.1",
      "gitref": "refs/tags/v1.0.1",
      "revision": "457dfe07784e837f5e5795314aeb79212ecafddf",
      "url": "https://github.com/mirage/lwt-dllist/releases/tag/v1.0.1"
    },
    "ocaml-lwt_log": {
      "version": "1.1.2",
      "gitref": "refs/tags/1.1.2",
      "revision": "f76c0045051411c1e7202624c5410749bdb95852",
      "url": "https://github.com/ocsigen/lwt_log/releases/tag/1.1.2"
    },
    "ocaml-markup": {
      "version": "1.0.3",
      "gitref": "refs/tags/1.0.3",
      "revision": "0c9791730aae3458682d51ac43a04d025633292f",
      "url": "https://github.com/aantron/markup.ml/releases/tag/1.0.3"
    },
    "ocaml-mdx": {
      "version": "2.5.0",
      "gitref": "refs/tags/2.5.0",
      "revision": "232bb140db56a173456935852fe68ba1f82d5a09",
      "url": "https://github.com/realworldocaml/mdx/releases/tag/2.5.0"
    },
    "ocaml-mirage-clock": {
      "version": "4.2.0",
      "gitref": "refs/tags/v4.2.0",
      "revision": "a6b6c71dd81d46ab5bd39eba930a6d1d10bd92f0",
      "url": "https://github.com/mirage/mirage-clock/releases/tag/v4.2.0"
    },
    "ocaml-monolith": {
      "version": "20241126",
      "revision": "bd4e07d8f65a08fdd840591279d7a1375ddabffb",
      "url": "https://gitlab.inria.fr/fpottier/monolith/-/tags/20241126"
    },
    "ocaml-mtime": {
      "version": "2.1.0",
      "gitref": "refs/tags/v2.1.0",
      "revision": "4b6a3c99d61684ef29140f1e143a691ad5920893"
    },
    "ocaml-multicore-bench": {
      "version": "0.1.7",
      "gitref": "refs/tags/0.1.7",
      "revision": "134071502c7af4b4119a7c394dfd628ff31d66c0",
      "url": "https://github.com/ocaml-multicore/multicore-bench/releases/tag/0.1.7"
    },
    "ocaml-multicore-magic": {
      "version": "2.3.1",
      "gitref": "refs/tags/2.3.1",
      "revision": "c2698e9f373e95f5878124256a12940214e2663e",
      "url": "https://github.com/ocaml-multicore/multicore-magic/releases/tag/2.3.1"
    },
    "ocaml-multicoretests": {
      "version": "0.7",
      "gitref": "refs/tags/0.7",
      "revision": "9621d6d3d443131adeba126c0fba400ea3a21939",
      "url": "https://github.com/ocaml-multicore/multicoretests/releases/tag/0.7"
    },
    "ocaml-ocaml-version": {
      "version": "3.7.3",
      "gitref": "refs/tags/v3.7.3",
      "revision": "d058454c3660a737a7622e224420e927a5c3d2ce",
      "url": "https://github.com/ocurrent/ocaml-version/releases/tag/v3.7.3"
    },
    "ocaml-ocplib-endian": {
      "version": "1.2",
      "gitref": "refs/tags/1.2",
      "revision": "10292cd3ffa4d23d737e3f855ad04f22d3d95460",
      "url": "https://github.com/OCamlPro/ocplib-endian/releases/tag/1.2"
    },
    "ocaml-optint": {
      "version": "0.3.0",
      "gitref": "refs/tags/v0.3.0",
      "revision": "01a05d18109b08f8519bde1a8fc93fc858b6bf61",
      "url": "https://github.com/mirage/optint/releases/tag/v0.3.0"
    },
    "ocaml-oseq": {
      "version": "0.5.1",
      "gitref": "refs/tags/v0.5.1",
      "revision": "b44a72b18210d69a894672c955828db1a4feab9c",
      "url": "https://github.com/c-cube/oseq/releases/tag/v0.5.1"
    },
    "ocaml-ounit": {
      "version": "2.2.7",
      "gitref": "refs/tags/v2.2.7",
      "revision": "3201243566e6959d59b902caace7f0a5bba38f8a",
      "url": "https://github.com/gildor478/ounit/releases/tag/v2.2.7"
    },
    "ocaml-parsexp": {
      "version": "0.17.0",
      "gitref": "refs/tags/v0.17.0",
      "revision": "332967db4c98054500f76e1de5d299d19b218a6e",
      "url": "https://github.com/janestreet/parsexp/releases/tag/v0.17.0"
    },
    "ocaml-pprint": {
      "version": "20230830",
      "gitref": "refs/tags/20230830",
      "revision": "70e6c890359aa24e22a355f6cce043ef057b9b2a",
      "url": "https://github.com/fpottier/pprint/releases/tag/20230830"
    },
    "ocaml-ppx_assert": {
      "version": "0.17.0",
      "gitref": "refs/tags/v0.17.0",
      "revision": "ba83d249d4b1cd7b3fe8eb20e73fae39d48f2ffa",
      "url": "https://github.com/janestreet/ppx_assert/releases/tag/v0.17.0"
    },
    "ocaml-ppx_base": {
      "version": "0.17.0",
      "gitref": "refs/tags/v0.17.0",
      "revision": "386bd84d7363895ea27ed3b92e6f497fa77c7af2",
      "url": "https://github.com/janestreet/ppx_base/releases/tag/v0.17.0"
    },
    "ocaml-ppx_bench": {
      "version": "0.17.0",
      "gitref": "refs/tags/v0.17.0",
      "revision": "6fb16df4eeee0fe1c4765790b22948ea5efb4a75",
      "url": "https://github.com/janestreet/ppx_bench/releases/tag/v0.17.0"
    },
    "ocaml-ppx_bin_prot": {
      "version": "0.17.0",
      "gitref": "refs/tags/v0.17.0",
      "revision": "0199e0d4cb3d736c7ee87f886c25af4fb19c107e",
      "url": "https://github.com/janestreet/ppx_bin_prot/releases/tag/v0.17.0"
    },
    "ocaml-ppx_cold": {
      "version": "0.17.0",
      "gitref": "refs/tags/v0.17.0",
      "revision": "150c14534f8bdafdda98f55f08ce414ec29d05d3",
      "url": "https://github.com/janestreet/ppx_cold/releases/tag/v0.17.0"
    },
    "ocaml-ppx_compare": {
      "version": "0.17.0",
      "gitref": "refs/tags/v0.17.0",
      "revision": "898b96da6ccd3c33d6a5cb35af6b80affe67137f",
      "url": "https://github.com/janestreet/ppx_compare/releases/tag/v0.17.0"
    },
    "ocaml-ppx_custom_printf": {
      "version": "0.17.0",
      "gitref": "refs/tags/v0.17.0",
      "revision": "e96a44efec950f5db8047d5e25cd7d75452e074e",
      "url": "https://github.com/janestreet/ppx_custom_printf/releases/tag/v0.17.0"
    },
    "ocaml-ppx_deriving": {
      "version": "6.0.3",
      "gitref": "refs/tags/v6.0.3",
      "revision": "d149900325675979142cd9f0cf31fbd15e97771c",
      "url": "https://github.com/ocaml-ppx/ppx_deriving/releases/tag/v6.0.3"
    },
    "ocaml-ppx_diff": {
      "version": "0.17.0",
      "gitref": "refs/tags/v0.17.0",
      "revision": "5f213706e9f0b5d8ba26d6bf9ac2e75b9a49788a",
      "url": "https://github.com/janestreet/ppx_diff/releases/tag/v0.17.0"
    },
    "ocaml-ppx_disable_unused_warnings": {
      "version": "0.17.0",
      "gitref": "refs/tags/v0.17.0",
      "revision": "31506150384f561d952362620b934f8dcb7fea9d",
      "url": "https://github.com/janestreet/ppx_disable_unused_warnings/releases/tag/v0.17.0"
    },
    "ocaml-ppx_enumerate": {
      "version": "0.17.0",
      "gitref": "refs/tags/v0.17.0",
      "revision": "3c5348bdcfba1fcd8471286939adfd03535cf67e",
      "url": "https://github.com/janestreet/ppx_enumerate/releases/tag/v0.17.0"
    },
    "ocaml-ppx_expect": {
      "version": "0.16.1",
      "gitref": "refs/tags/v0.16.1",
      "revision": "ba38f501e84fb1c538bf1c6789b236f29e886538",
      "url": "https://github.com/janestreet/ppx_expect/releases/tag/v0.16.1"
    },
    "ocaml-ppx_fields_conv": {
      "version": "0.17.0",
      "gitref": "refs/tags/v0.17.0",
      "revision": "d33bbb3c83298eb70e9e086b2f6447d568fde944",
      "url": "https://github.com/janestreet/ppx_fields_conv/releases/tag/v0.17.0"
    },
    "ocaml-ppx_fixed_literal": {
      "version": "0.17.0",
      "gitref": "refs/tags/v0.17.0",
      "revision": "7112af56743946c4a96eb0316f65cab4040cecdb",
      "url": "https://github.com/janestreet/ppx_fixed_literal/releases/tag/v0.17.0"
    },
    "ocaml-ppx_gen_rec": {
      "version": "2.0.0",
      "gitref": "refs/tags/v2.0.0",
      "revision": "e41af2eb8ecd620654dc4b26029241fb4b6b33a8",
      "url": "https://github.com/flowtype/ocaml-ppx_gen_rec/releases/tag/v2.0.0"
    },
    "ocaml-ppx_globalize": {
      "version": "0.17.0",
      "gitref": "refs/tags/v0.17.0",
      "revision": "079acc99a277513ac5de2306e4be6577ca6f1f19",
      "url": "https://github.com/janestreet/ppx_globalize/releases/tag/v0.17.0"
    },
    "ocaml-ppx_hash": {
      "version": "0.17.0",
      "gitref": "refs/tags/v0.17.0",
      "revision": "abaac61f5f752ad661cc14b62cceb6f4bc1de9ac",
      "url": "https://github.com/janestreet/ppx_hash/releases/tag/v0.17.0"
    },
    "ocaml-ppx_here": {
      "version": "0.17.0",
      "gitref": "refs/tags/v0.17.0",
      "revision": "d880106933ac9e8cb6f85a5fc3488ab167fcdf89",
      "url": "https://github.com/janestreet/ppx_here/releases/tag/v0.17.0"
    },
    "ocaml-ppx_ignore_instrumentation": {
      "version": "0.17.0",
      "gitref": "refs/tags/v0.17.0",
      "revision": "bf3a97f1aa661833009a37cd7b94654fede505b7",
      "url": "https://github.com/janestreet/ppx_ignore_instrumentation/releases/tag/v0.17.0"
    },
    "ocaml-ppx_inline_test": {
      "version": "0.17.0",
      "gitref": "refs/tags/v0.17.0",
      "revision": "1a2bb95e553c4e574b5279aff712925157d33911",
      "url": "https://github.com/janestreet/ppx_inline_test/releases/tag/v0.17.0"
    },
    "ocaml-ppx_jane": {
      "version": "0.17.0",
      "gitref": "refs/tags/v0.17.0",
      "revision": "6348f3e629e3ec65f50166296dd5bebc1c8eb020",
      "url": "https://github.com/janestreet/ppx_jane/releases/tag/v0.17.0"
    },
    "ocaml-ppx_let": {
      "version": "0.17.0",
      "gitref": "refs/tags/v0.17.0",
      "revision": "39636b261bc99d355b82077c806f516e1b9701fc",
      "url": "https://github.com/janestreet/ppx_let/releases/tag/v0.17.0"
    },
    "ocaml-ppx_log": {
      "version": "0.17.0",
      "gitref": "refs/tags/v0.17.0",
      "revision": "9de353904e69cc45b4614a8a9404907a9c851adb",
      "url": "https://github.com/janestreet/ppx_log/releases/tag/v0.17.0"
    },
    "ocaml-ppx_module_timer": {
      "version": "0.17.0",
      "gitref": "refs/tags/v0.17.0",
      "revision": "40bdd63662cc8360681e17c824affde96c37d6b8",
      "url": "https://github.com/janestreet/ppx_module_timer/releases/tag/v0.17.0"
    },
    "ocaml-ppx_optcomp": {
      "version": "0.17.0",
      "gitref": "refs/tags/v0.17.0",
      "revision": "9cb43224bdc52a7ae8b26485cdb8d221acd1b1f9",
      "url": "https://github.com/janestreet/ppx_optcomp/releases/tag/v0.17.0"
    },
    "ocaml-ppx_optional": {
      "version": "0.17.0",
      "gitref": "refs/tags/v0.17.0",
      "revision": "33dfa163c71f6dacac13f58166469bfa0519e0a2",
      "url": "https://github.com/janestreet/ppx_optional/releases/tag/v0.17.0"
    },
    "ocaml-ppx_pipebang": {
      "version": "0.17.0",
      "gitref": "refs/tags/v0.17.0",
      "revision": "4fb9bb0cc1c3ff92ab3c11cbe6ae5fc687c6caa6",
      "url": "https://github.com/janestreet/ppx_pipebang/releases/tag/v0.17.0"
    },
    "ocaml-ppx_sexp_conv": {
      "version": "0.17.0",
      "gitref": "refs/tags/v0.17.0",
      "revision": "096105e9eeebf599e2178cff874a8161900359a2",
      "url": "https://github.com/janestreet/ppx_sexp_conv/releases/tag/v0.17.0"
    },
    "ocaml-ppx_sexp_message": {
      "version": "0.17.0",
      "gitref": "refs/tags/v0.17.0",
      "revision": "e350dfffaa1ef6b3bbc9cb0cc717dde20788912f",
      "url": "https://github.com/janestreet/ppx_sexp_message/releases/tag/v0.17.0"
    },
    "ocaml-ppx_sexp_value": {
      "version": "0.17.0",
      "gitref": "refs/tags/v0.17.0",
      "revision": "394c0fe053bb7ccc90d90656db35b956ee98db3f",
      "url": "https://github.com/janestreet/ppx_sexp_value/releases/tag/v0.17.0"
    },
    "ocaml-ppx_stable": {
      "version": "0.17.0",
      "gitref": "refs/tags/v0.17.0",
      "revision": "fdaa7267e468a43aec17c6e7d5a5cf6268b9d134",
      "url": "https://github.com/janestreet/ppx_stable/releases/tag/v0.17.0"
    },
    "ocaml-ppx_stable_witness": {
      "version": "0.17.0",
      "gitref": "refs/tags/v0.17.0",
      "revision": "d9cdce4e1ff97145acfd4e7a734e033d307b71aa",
      "url": "https://github.com/janestreet/ppx_stable_witness/releases/tag/v0.17.0"
    },
    "ocaml-ppx_string": {
      "version": "0.17.0",
      "gitref": "refs/tags/v0.17.0",
      "revision": "4fa41f7601a60bd5b751565c14e38ae8480aab79",
      "url": "https://github.com/janestreet/ppx_string/releases/tag/v0.17.0"
    },
    "ocaml-ppx_string_conv": {
      "version": "0.17.0",
      "gitref": "refs/tags/v0.17.0",
      "revision": "ace6a49cadbe7906188a4de40d00cda2d3df4d5b",
      "url": "https://github.com/janestreet/ppx_string_conv/releases/tag/v0.17.0"
    },
    "ocaml-ppx_tydi": {
      "version": "0.17.0",
      "gitref": "refs/tags/v0.17.0",
      "revision": "b3dcd32c2e0b400330d9806b1580b345b7ea821b",
      "url": "https://github.com/janestreet/ppx_tydi/releases/tag/v0.17.0"
    },
    "ocaml-ppx_typerep_conv": {
      "version": "0.17.0",
      "gitref": "refs/tags/v0.17.0",
      "revision": "90fea4d609f3963ec3672caf8732f85db028cdb4",
      "url": "https://github.com/janestreet/ppx_typerep_conv/releases/tag/v0.17.0"
    },
    "ocaml-ppx_variants_conv": {
      "version": "0.17.0",
      "gitref": "refs/tags/v0.17.0",
      "revision": "816603ba0a114dc2107e4b84c5a340e200cb9361",
      "url": "https://github.com/janestreet/ppx_variants_conv/releases/tag/v0.17.0"
    },
    "ocaml-ppxlib": {
      "version": "0.36.0",
      "gitref": "refs/tags/0.36.0",
      "revision": "e3501d0e6235e96115ca010675ca708a8f4d312c",
      "url": "https://github.com/ocaml-ppx/ppxlib/releases/tag/0.36.0"
    },
    "ocaml-ppxlib_jane": {
      "version": "0.17.2",
      "gitref": "refs/tags/v0.17.2",
      "revision": "f6abd99b1f4fada1b3132e2e2942682a6bb9150b",
      "url": "https://github.com/janestreet/ppxlib_jane/releases/tag/v0.17.2"
    },
    "ocaml-protocol_version_header": {
      "version": "0.17.0",
      "gitref": "refs/tags/v0.17.0",
      "revision": "18ed82dda03799f617919fde8f726933e68fddba",
      "url": "https://github.com/janestreet/protocol_version_header/releases/tag/v0.17.0"
    },
    "ocaml-psq": {
      "version": "0.2.1",
      "gitref": "refs/tags/v0.2.1",
      "revision": "b2eb86165712da210bcffec385bb7e031e54045e",
      "url": "https://github.com/pqwy/psq/releases/tag/v0.2.1"
    },
    "ocaml-qcheck": {
      "version": "0.24",
      "gitref": "refs/tags/v0.24",
      "revision": "42429bf06ba12373cad02b1404f50d0ad6238af5",
      "url": "https://github.com/c-cube/qcheck/releases/tag/v0.24"
    },
    "ocaml-react": {
      "version": "1.2.2",
      "gitref": "refs/tags/v1.2.2",
      "revision": "e540f122fc8d155c336c6b8a6f03d1e49817f2a8"
    },
    "ocaml-reactivedata": {
      "version": "0.3.1",
      "gitref": "refs/tags/0.3.1",
      "revision": "099f132d68cddaaab0e93b5785da5bf5aa602edd",
      "url": "https://github.com/ocsigen/reactiveData/releases/tag/0.3.1"
    },
    "ocaml-sedlex": {
      "version": "3.3",
      "gitref": "refs/tags/v3.3",
      "revision": "5cb9ec099695fff5909d867da3d65711e8902e57",
      "url": "https://github.com/ocaml-community/sedlex/releases/tag/v3.3"
    },
    "ocaml-seq": {
      "version": "20240529.134806",
      "revision": "76eb35c8a78a891c7e5e27b5c32316d7add1f52d",
      "url": "https://github.com/ocaml/opam-repository/commit/76eb35c8a78a891c7e5e27b5c32316d7add1f52d"
    },
    "ocaml-sexp_pretty": {
      "version": "0.17.0",
      "gitref": "refs/tags/v0.17.0",
      "revision": "a5014bdf14bc563fef7ddabbeebdda478c39bf16",
      "url": "https://github.com/janestreet/sexp_pretty/releases/tag/v0.17.0"
    },
    "ocaml-sexplib": {
      "version": "0.17.0",
      "gitref": "refs/tags/v0.17.0",
      "revision": "e777b5f742125a69a3dce01a833468e83c0002be",
      "url": "https://github.com/janestreet/sexplib/releases/tag/v0.17.0"
    },
    "ocaml-spawn": {
      "version": "0.17.0",
      "gitref": "refs/tags/v0.17.0",
      "revision": "5950018ac97fb140ed96a02fd178fff6b97dae3b",
      "url": "https://github.com/janestreet/spawn/releases/tag/v0.17.0"
    },
    "ocaml-splittable_random": {
      "version": "0.17.0",
      "gitref": "refs/tags/v0.17.0",
      "revision": "0f4a6ef59a640f8ac38a8140f0800895189230fe",
      "url": "https://github.com/janestreet/splittable_random/releases/tag/v0.17.0"
    },
    "ocaml-textutils": {
      "version": "0.17.0",
      "gitref": "refs/tags/v0.17.0",
      "revision": "e2ecfdd4301666ec640ae5eef056515c1828ef73",
      "url": "https://github.com/janestreet/textutils/releases/tag/v0.17.0"
    },
    "ocaml-thread-table": {
      "version": "1.0.0",
      "gitref": "refs/tags/1.0.0",
      "revision": "3e4e5623012924b1cfcfd10e6847df28e7dbde7b",
      "url": "https://github.com/ocaml-multicore/thread-table/releases/tag/1.0.0"
    },
    "ocaml-time_now": {
      "version": "0.17.0",
      "gitref": "refs/tags/v0.17.0",
      "revision": "112f3885262b236a36c0dce1b6790c0561ded7ca",
      "url": "https://github.com/janestreet/time_now/releases/tag/v0.17.0"
    },
    "ocaml-timezone": {
      "version": "0.17.0",
      "gitref": "refs/tags/v0.17.0",
      "revision": "fd36af4cffb5d31babe32e41d5167ea01629f1c0",
      "url": "https://github.com/janestreet/timezone/releases/tag/v0.17.0"
    },
    "ocaml-tsort": {
      "version": "2.1.0",
      "gitref": "refs/tags/2.1.0",
      "revision": "a709e2a7f45c4296416b3f2ea587c3a9e9da6f3c",
      "url": "https://github.com/dmbaturin/ocaml-tsort/releases/tag/2.1.0"
    },
    "ocaml-typerep": {
      "version": "0.17.1",
      "gitref": "refs/tags/v0.17.1",
      "revision": "d34e660681bf587c461a7ff14b698a2feb5bcfd5",
      "url": "https://github.com/janestreet/typerep/releases/tag/v0.17.1"
    },
    "ocaml-tyxml": {
      "version": "4.6.0",
      "gitref": "refs/tags/4.6.0",
      "revision": "533eac90dd12895921a208ea54196b24731c1108",
      "url": "https://github.com/ocsigen/tyxml/releases/tag/4.6.0"
    },
    "ocaml-uopt": {
      "version": "0.17.0",
      "gitref": "refs/tags/v0.17.0",
      "revision": "e0a33e19038a0208596aa194dbcd6025cf87197c",
      "url": "https://github.com/janestreet/uopt/releases/tag/v0.17.0"
    },
    "ocaml-uring": {
      "version": "0.9",
      "gitref": "refs/tags/v0.9",
      "revision": "332c8e1d1ece1a3e618c1d0bdf676e88ec60ea45",
      "url": "https://github.com/ocaml-multicore/ocaml-uring/releases/tag/v0.9"
    },
    "ocaml-uucd": {
      "version": "16.0.0",
      "gitref": "refs/tags/v16.0.0",
      "revision": "a40adcf2c5500835c6257bad493b842e1344eb39"
    },
    "ocaml-uucp": {
      "version": "16.0.0",
      "gitref": "refs/tags/v16.0.0",
      "revision": "bf381edd2d54477c145da9fc71d8e6375076b0df"
    },
    "ocaml-uunf": {
      "version": "16.0.0",
      "gitref": "refs/tags/v16.0.0",
      "revision": "7ea696ed4693cf7dd7083cbf96e0da977d4b8cd2"
    },
    "ocaml-uuseg": {
      "version": "16.0.0",
      "gitref": "refs/tags/v16.0.0",
      "revision": "2dddd82285471d146ff15e1a318c1b9926d37fdf"
    },
    "ocaml-uutf": {
      "version": "1.0.3",
      "gitref": "refs/tags/v1.0.3",
      "revision": "f8716fd8a381c137911cb693f60c264cac944dd9"
    },
    "ocaml-variantslib": {
      "version": "0.17.0",
      "gitref": "refs/tags/v0.17.0",
      "revision": "d1cf5ac2ef9a250a0fb6dc7aecc41ac471103f4c",
      "url": "https://github.com/janestreet/variantslib/releases/tag/v0.17.0"
    },
    "ocaml-visitors": {
      "version": "20250212",
      "revision": "aec49fa58c86e5d67d54d0e8c85cc9ad87dc32a1",
      "url": "https://gitlab.inria.fr/fpottier/visitors/-/tags/20250212"
    },
    "ocaml-wtf8": {
      "version": "1.0.2",
      "gitref": "refs/tags/v1.0.2",
      "revision": "ad0d8a786690c3235a8cc02e6d4e21f1b42cc40f",
      "url": "https://github.com/flowtype/ocaml-wtf8/releases/tag/v1.0.2"
    },
    "ocaml-xmlm": {
      "version": "1.4.0",
      "gitref": "refs/tags/v1.4.0",
      "revision": "50f350b75f59110a12b1d646985c8fbdae97792a"
    },
    "ostrajava": {
      "version": "20220307.182015",
      "revision": "1c9031fe7350e895b357c344f4f68658c319fc70",
      "url": "https://github.com/tkohout/OSTRAJava/commit/1c9031fe7350e895b357c344f4f68658c319fc70"
    },
    "parsedmarc": {
      "version": "8.18.1",
      "gitref": "refs/tags/8.18.1",
      "revision": "5273948be07cf41ae963901b94d11b8620e4bf7f",
      "url": "https://github.com/domainaware/parsedmarc/releases/tag/8.18.1"
    },
    "perl-compass-points": {
      "version": "0.02",
      "url": "https://metacpan.org/release/JANUS/Compass-Points-0.02"
    },
    "pwrate": {
      "version": "1.7.1",
      "gitref": "refs/tags/1.7.1",
      "revision": "d881a0b3926e83fdd7a1b4c5521397641ed7d763",
      "url": "https://github.com/pkunk/pwrate/releases/tag/1.7.1"
    },
    "python-azure-core": {
      "version": "1.32.0",
      "gitref": "refs/tags/azure-core_1.32.0",
      "revision": "f306890ad320225dffc40b70840fb5c41fd4387d",
      "url": "https://github.com/Azure/azure-sdk-for-python/releases/tag/azure-core_1.32.0"
    },
    "python-azure-identity": {
      "version": "1.20.0",
      "gitref": "refs/tags/azure-identity_1.20.0",
      "revision": "42437f14b1b5d5037b4df4cfcc265a4580ff89b0",
      "url": "https://github.com/Azure/azure-sdk-for-python/releases/tag/azure-identity_1.20.0"
    },
    "python-azure-monitor-ingestion": {
      "version": "1.0.4",
      "gitref": "refs/tags/azure-monitor-ingestion_1.0.4",
      "revision": "dff67447e2fcac50657ae866c7a4e53048fb92e2",
      "url": "https://github.com/Azure/azure-sdk-for-python/releases/tag/azure-monitor-ingestion_1.0.4"
    },
    "python-elasticsearch": {
      "version": "7.13.4",
      "gitref": "refs/tags/v7.13.4",
      "revision": "8c90d398c3ce8d826a6ede88e56f3e41c68dc000",
      "url": "https://github.com/elastic/elasticsearch-py/releases/tag/v7.13.4"
    },
    "python-elasticsearch-dsl": {
      "version": "7.4.1",
      "gitref": "refs/tags/v7.4.1",
      "revision": "75522d6e6dfa8bb71b9a32801241d8614c969acd",
      "url": "https://github.com/elastic/elasticsearch-dsl-py/releases/tag/v7.4.1"
    },
    "python-imapclient": {
      "version": "3.0.1",
      "gitref": "refs/tags/3.0.1",
      "revision": "9a6a0df2d8d44c1f3d57c222d234740f8d381395",
      "url": "https://github.com/mjs/imapclient/releases/tag/3.0.1"
    },
    "python-inputmodule": {
      "version": "0.2.0",
      "gitref": "refs/tags/v0.2.0",
      "revision": "8f419f88b580f10830828ec6e15b960b32b03b75",
      "url": "https://github.com/FrameworkComputer/inputmodule-rs/releases/tag/v0.2.0"
    },
    "python-kafka-ng": {
      "version": "2.2.3",
      "gitref": "refs/tags/v2.2.3",
      "revision": "61046232200688ceaba9726ab963b643b223b1d4",
      "url": "https://github.com/wbarnha/kafka-python-ng/releases/tag/v2.2.3"
    },
    "python-mailsuite": {
      "version": "20241024.215642",
      "revision": "7ace5e65c5524aee715c5deb50cd1e9dd92f8187",
      "url": "https://github.com/seanthegeek/mailsuite/commit/7ace5e65c5524aee715c5deb50cd1e9dd92f8187"
    },
    "python-msal-extensions": {
      "version": "1.2.0",
      "gitref": "refs/tags/1.2.0",
      "revision": "6fd4920f20ab36263a55ad228c432265f8d2f2eb",
      "url": "https://github.com/AzureAD/microsoft-authentication-extensions-for-python/releases/tag/1.2.0"
    },
    "python-msgraph-core": {
      "version": "0.2.2",
      "gitref": "refs/tags/v0.2.2",
      "revision": "5616ecd14eea7b0462e79cc21237883363d4085b",
      "url": "https://github.com/microsoftgraph/msgraph-sdk-python-core/releases/tag/v0.2.2"
    },
    "python-neotermcolor": {
      "version": "20210223.134640",
      "revision": "f4993d2590a2bfe6d89d075a38ede39e7dd0b896",
      "url": "https://github.com/alttch/neotermcolor/commit/f4993d2590a2bfe6d89d075a38ede39e7dd0b896"
    },
    "python-py_cui": {
      "version": "0.1.6",
      "gitref": "refs/tags/v0.1.6",
      "revision": "3a7f79cb1cfda4e5aa650a7f92ac04ef7c360e5f",
      "url": "https://github.com/jwlodek/py_cui/releases/tag/v0.1.6"
    },
    "python-pygelf": {
      "version": "20240709.143320",
      "revision": "11a2b5d27c50372692d33d1f72045835578731b2",
      "url": "https://github.com/keeprocking/pygelf/commit/11a2b5d27c50372692d33d1f72045835578731b2"
    },
    "python-pysmart": {
      "version": "1.4.1",
      "gitref": "refs/tags/v1.4.1",
      "revision": "d1db1071d9732d088fa64f3cff2f6223e1cdc830",
      "url": "https://github.com/freenas/py-SMART/releases/tag/v1.4.1"
    },
    "python-rapidtables": {
      "version": "20191117.003535",
      "revision": "da2737da6c210518e3044782d72de031c53d9a7e",
      "url": "https://github.com/alttch/rapidtables/commit/da2737da6c210518e3044782d72de031c53d9a7e"
    },
    "railway-sans-font": {
      "version": "Aug 24 2020"
    },
    "renrot": {
      "version": "5fc8c005c2010d081fb50a96395cf1afc65a6cdb",
      "revision": "5fc8c005c2010d081fb50a96395cf1afc65a6cdb"
    },
    "salvador": {
      "version": "3.1.5",
      "revision": "b182d734e17ff0f6e7be329a78f4f1d7c898d0c1",
      "url": "https://gitlab.com/dpeukert/salvador/-/tags/3.1.5"
    },
    "shd": {
      "version": "0.1.6",
      "gitref": "refs/tags/v0.1.6",
      "revision": "255b5565af771bc087d5378e8e7b5596a4dd27ce",
      "url": "https://github.com/alttch/shd/releases/tag/v0.1.6"
    },
    "tarnation": {
      "version": "20200528.135950",
      "revision": "2e908e8eadc446ddbc9e5c3c4e068eaf7d711edb",
      "url": "https://github.com/kennyparsons/tarnation/commit/2e908e8eadc446ddbc9e5c3c4e068eaf7d711edb"
    },
    "ttf-google-fonts-typewolf": {
      "version": "20250116"
    },
    "ttf-material-design-icons-webfont": {
      "version": "7.4.47",
      "gitref": "refs/tags/v7.4.47",
      "revision": "2ab19fe83a92eae7432b0facb04ba65d663edd05",
      "url": "https://github.com/Templarian/MaterialDesign-Webfont/releases/tag/v7.4.47"
    },
    "vrf-decompiler": {
      "version": "11.1",
      "gitref": "refs/tags/11.1",
      "revision": "057b91edddcbce98d6c00c4446dc7e27f582ead6",
      "url": "https://github.com/SteamDatabase/ValveResourceFormat/releases/tag/11.1"
    },
    "vsd": {
      "version": "bento4-src-0.1.3",
      "gitref": "refs/tags/bento4-src-0.1.3",
      "revision": "acce57333cb2d9cc941cae143b421c218a4028ce",
      "url": "https://github.com/clitic/vsd/releases/tag/bento4-src-0.1.3"
    },
    "weatherspect": {
      "version": "20200122.110025",
      "revision": "0f858754b48fe08a37fd175988416699ca5d3445",
      "url": "https://github.com/AnotherFoxGuy/weatherspect/commit/0f858754b48fe08a37fd175988416699ca5d3445"
    },
    "wxtoimg-beta": {
      "version": "2.11.2"
    }
  }
}
